{
  "total_rows": 50,
  "total_pages": 5,
  "current_page": 1,
  "page_size": 10,
  "columns": [
    { "name": "text", "type": "string" },
    "translation",
    "reference_text",
    { "name": "gs_audio_filepath", "type": "audio" },
    "lang",
    "duration",
    "language",
    "type",
    "audio_filepath",
    { "name": "dqwnfn", "type": "image" }
  ],
  "filters": {
    "lang": ["hi", "en", "eu"],
    "type": ["A+ve", "B+ve"]
  },
  "quantitative_filters": {},
  "data": [
    {
      "text": "तीन बार ऐसा ही हुआ तब सब कुछ फिर आकाश पर खींच लिया गया",
      "translation": "This happened three times. Then everything was pulled up into the sky.",
      "reference_text": "’ तीन बार ऐसा ही हुआ; तब सब कुछ फिर आकाश पर खींच लिया गया",
      "gs_audio_filepath": "gs://audiotextdata/asr_train_dataset_0_3/Bible/hi/Acts_11_16khz_chunk_6.wav",
      "lang": "Hindi",
      "duration": 5.625,
      "language": "hindi",
      "type": "bible",
      "audio_filepath": "/shared/home/model/bible_noa_audios/bible/Acts_11_16khz_chunk_6.wav"
    },
    {
      "text": "इसलिए मैं जब बुलाया गया तो बिना कुछ कहे चला आया",
      "translation": "Therefore, when I was called, I came away without saying anything.",
      "reference_text": "इसलिए मैं जब बुलाया गया तो बिना कुछ कहे चला आया",
      "gs_audio_filepath": "gs://audiotextdata/asr_train_dataset_0_3/Bible/hi/Acts_10_16khz_chunk_25.wav",
      "lang": "Hindi",
      "duration": 5.25,
      "language": "hindi",
      "type": "bible",
      "audio_filepath": "/shared/home/model/bible_noa_audios/bible/Acts_10_16khz_chunk_25.wav"
    },
    {
      "text": "तब उसने उन्हें भीतर बुलाकर उनको रहने की जगह दी",
      "translation": "Then he called them inside and gave them a place to stay.",
      "reference_text": "” तब उसने उन्हें भीतर बुलाकर उनको रहने की जगह दी",
      "gs_audio_filepath": "gs://audiotextdata/asr_train_dataset_0_3/Bible/hi/Acts_10_16khz_chunk_19.wav",
      "lang": "Hindi",
      "duration": 4.07,
      "language": "hindi",
      "type": "bible",
      "audio_filepath": "/shared/home/model/bible_noa_audios/bible/Acts_10_16khz_chunk_19.wav"
    },
    {
      "text": "पतरस ये बातें कह ही रहा था कि पवित्र आत्मा वचन के सब सुनने वालों पर उतर आया",
      "translation": "Peter was still speaking when the Holy Spirit fell upon all who heard the message.",
      "reference_text": "पतरस ये बातें कह ही रहा था कि पवित्र आत्मा वचन के सब सुननेवालों पर उतर आया",
      "gs_audio_filepath": "gs://audiotextdata/asr_train_dataset_0_3/Bible/hi/Acts_10_16khz_chunk_39.wav",
      "lang": "Hindi",
      "duration": 5.985,
      "language": "hindi",
      "type": "bible",
      "audio_filepath": "/shared/home/model/bible_noa_audios/bible/Acts_10_16khz_chunk_39.wav"
    },
    {
      "text": "बंदीगृह में पतरस की रखवाली हो रही थी। परन्तु कलीसिया उसके लिए लौ लगाकर परमेश्वर से प्रार्थना कर रही थी।",
      "translation": "Peter was being guarded in prison. But the church was praying to God for him with earnest plea.",
      "reference_text": "बन्दीगृह में पतरस की रखवाली हो रही थी; परन्तु कलीसिया उसके लिये लौ लगाकर परमेश्वर से प्रार्थना कर रही थी",
      "gs_audio_filepath": "gs://audiotextdata/asr_train_dataset_0_3/Bible/hi/Acts_12_16khz_chunk_5.wav",
      "lang": "Hindi",
      "duration": 8.355,
      "language": "hindi",
      "type": "bible",
      "audio_filepath": "/shared/home/model/bible_noa_audios/bible/Acts_12_16khz_chunk_5.wav"
    },
    {
      "text": "मैंने कहा नहीं प्रभु नहीं क्योंकि कोई अपवित्र या अशुद्ध वस्तु मेरे मुंह में कभी नहीं गई",
      "translation": "I said, 'No, Lord, no; for nothing unclean or unholy has ever entered my mouth.",
      "reference_text": "’ मैंने कहा, ‘नहीं प्रभु, नहीं; क्योंकि कोई अपवित्र या अशुद्ध वस्तु मेरे मुँह में कभी नहीं गई",
      "gs_audio_filepath": "gs://audiotextdata/asr_train_dataset_0_3/Bible/hi/Acts_11_16khz_chunk_4.wav",
      "lang": "Hindi",
      "duration": 8.135,
      "language": "hindi",
      "type": "bible",
      "audio_filepath": "/shared/home/model/bible_noa_audios/bible/Acts_11_16khz_chunk_4.wav"
    },
    {
      "text": "इसके उत्तर में आकाश से दोबारा आवाज आई जो कुछ परमेश्वर ने शुद्ध ठहराया है उसे अशुद्ध मत कहें",
      "translation": "In response to this, a voice came again from heaven, 'Do not call anything that God has made clean, unclean.'",
      "reference_text": "’ इसके उत्तर में आकाश से दोबारा आवाज आई, ‘जो कुछ परमेश्वर ने शुद्ध ठहराया है, उसे अशुद्ध मत कह",
      "gs_audio_filepath": "gs://audiotextdata/asr_train_dataset_0_3/Bible/hi/Acts_11_16khz_chunk_5.wav",
      "lang": "Hindi",
      "duration": 9.265,
      "language": "hindi",
      "type": "bible",
      "audio_filepath": "/shared/home/model/bible_noa_audios/bible/Acts_11_16khz_chunk_5.wav"
    },
    {
      "text": "अब हम सब यहाँ परमेश्वर के सामने हैं ताकि जो कुछ परमेश्वर ने तुझ से कहा है उसे सुनें",
      "translation": "Now we are all here before God so that we may hear what God has said to you.",
      "reference_text": "अब हम सब यहाँ परमेश्वर के सामने हैं, ताकि जो कुछ परमेश्वर ने तुझ से कहा है उसे सुनें",
      "gs_audio_filepath": "gs://audiotextdata/asr_train_dataset_0_3/Bible/hi/Acts_10_16khz_chunk_31.wav",
      "lang": "Hindi",
      "duration": 7.06,
      "language": "hindi",
      "type": "bible",
      "audio_filepath": "/shared/home/model/bible_noa_audios/bible/Acts_10_16khz_chunk_31.wav"
    },
    {
      "text": "क्योंकि उन्होंने उन्हें भाँति-भाँति की भाषा बोलते और परमेश्वर की बड़ाई करते सुना",
      "translation": "Because they heard them speaking in different languages and praising God.",
      "reference_text": "क्योंकि उन्होंने उन्हें भाँति-भाँति की भाषा बोलते और परमेश्वर की बड़ाई करते सुना",
      "gs_audio_filepath": "gs://audiotextdata/asr_train_dataset_0_3/Bible/hi/Acts_10_16khz_chunk_41.wav",
      "lang": "Hindi",
      "duration": 7.12,
      "language": "hindi",
      "type": "bible",
      "audio_filepath": "/shared/home/model/bible_noa_audios/bible/Acts_10_16khz_chunk_41.wav"
    },
    {
      "text": "और उसे एक ऐसी वाणी सुनाई दी, हे पतरस उठ, मार और खा",
      "translation": "And a voice came to him, 'Peter, get up, kill and eat.'",
      "reference_text": "और उसे एक ऐसी वाणी सुनाई दी, “हे पतरस उठ, मार और खा",
      "gs_audio_filepath": "gs://audiotextdata/asr_train_dataset_0_3/Bible/hi/Acts_10_16khz_chunk_11.wav",
      "lang": "Hindi",
      "duration": 6.32,
      "language": "hindi",
      "type": "bible",
      "audio_filepath": "/shared/home/model/bible_noa_audios/bible/Acts_10_16khz_chunk_11.wav"
    }
  ],
  "message": "Dataset loaded successfully"
}
